('/Users/aleks/PycharmProjects/test/build/test/PKG-00.pkg',
 {'BINARY': 1,
  'DATA': 1,
  'EXECUTABLE': 1,
  'EXTENSION': 1,
  'PYMODULE': 1,
  'PYSOURCE': 1,
  'PYZ': 0},
 [('PYZ-00.pyz',
   '/Users/aleks/PycharmProjects/test/build/test/PYZ-00.pyz',
   'PYZ'),
  ('_struct',
   '/usr/local/Cellar/python/3.7.3/Frameworks/Python.framework/Versions/3.7/lib/python3.7/lib-dynload/_struct.cpython-37m-darwin.so',
   'EXTENSION'),
  ('zlib',
   '/usr/local/Cellar/python/3.7.3/Frameworks/Python.framework/Versions/3.7/lib/python3.7/lib-dynload/zlib.cpython-37m-darwin.so',
   'EXTENSION'),
  ('struct',
   '/usr/local/Cellar/python/3.7.3/Frameworks/Python.framework/Versions/3.7/lib/python3.7/struct.pyo',
   'PYMODULE'),
  ('pyimod01_os_path',
   '/Users/aleks/PycharmProjects/test/venv/lib/python3.7/site-packages/PyInstaller/loader/pyimod01_os_path.pyc',
   'PYMODULE'),
  ('pyimod02_archive',
   '/Users/aleks/PycharmProjects/test/venv/lib/python3.7/site-packages/PyInstaller/loader/pyimod02_archive.pyc',
   'PYMODULE'),
  ('pyimod03_importers',
   '/Users/aleks/PycharmProjects/test/venv/lib/python3.7/site-packages/PyInstaller/loader/pyimod03_importers.pyc',
   'PYMODULE'),
  ('pyiboot01_bootstrap',
   '/Users/aleks/PycharmProjects/test/venv/lib/python3.7/site-packages/PyInstaller/loader/pyiboot01_bootstrap.py',
   'PYSOURCE'),
  ('test', '/Users/aleks/PycharmProjects/test/test.py', 'PYSOURCE'),
  ('Python',
   '/usr/local/Cellar/python/3.7.3/Frameworks/Python.framework/Versions/3.7/Python',
   'BINARY'),
  ('resource',
   '/usr/local/Cellar/python/3.7.3/Frameworks/Python.framework/Versions/3.7/lib/python3.7/lib-dynload/resource.cpython-37m-darwin.so',
   'EXTENSION'),
  ('_pickle',
   '/usr/local/Cellar/python/3.7.3/Frameworks/Python.framework/Versions/3.7/lib/python3.7/lib-dynload/_pickle.cpython-37m-darwin.so',
   'EXTENSION'),
  ('_datetime',
   '/usr/local/Cellar/python/3.7.3/Frameworks/Python.framework/Versions/3.7/lib/python3.7/lib-dynload/_datetime.cpython-37m-darwin.so',
   'EXTENSION'),
  ('_posixsubprocess',
   '/usr/local/Cellar/python/3.7.3/Frameworks/Python.framework/Versions/3.7/lib/python3.7/lib-dynload/_posixsubprocess.cpython-37m-darwin.so',
   'EXTENSION'),
  ('_ssl',
   '/usr/local/Cellar/python/3.7.3/Frameworks/Python.framework/Versions/3.7/lib/python3.7/lib-dynload/_ssl.cpython-37m-darwin.so',
   'EXTENSION'),
  ('_codecs_tw',
   '/usr/local/Cellar/python/3.7.3/Frameworks/Python.framework/Versions/3.7/lib/python3.7/lib-dynload/_codecs_tw.cpython-37m-darwin.so',
   'EXTENSION'),
  ('_codecs_jp',
   '/usr/local/Cellar/python/3.7.3/Frameworks/Python.framework/Versions/3.7/lib/python3.7/lib-dynload/_codecs_jp.cpython-37m-darwin.so',
   'EXTENSION'),
  ('_codecs_kr',
   '/usr/local/Cellar/python/3.7.3/Frameworks/Python.framework/Versions/3.7/lib/python3.7/lib-dynload/_codecs_kr.cpython-37m-darwin.so',
   'EXTENSION'),
  ('_codecs_hk',
   '/usr/local/Cellar/python/3.7.3/Frameworks/Python.framework/Versions/3.7/lib/python3.7/lib-dynload/_codecs_hk.cpython-37m-darwin.so',
   'EXTENSION'),
  ('_codecs_cn',
   '/usr/local/Cellar/python/3.7.3/Frameworks/Python.framework/Versions/3.7/lib/python3.7/lib-dynload/_codecs_cn.cpython-37m-darwin.so',
   'EXTENSION'),
  ('_codecs_iso2022',
   '/usr/local/Cellar/python/3.7.3/Frameworks/Python.framework/Versions/3.7/lib/python3.7/lib-dynload/_codecs_iso2022.cpython-37m-darwin.so',
   'EXTENSION'),
  ('_multibytecodec',
   '/usr/local/Cellar/python/3.7.3/Frameworks/Python.framework/Versions/3.7/lib/python3.7/lib-dynload/_multibytecodec.cpython-37m-darwin.so',
   'EXTENSION'),
  ('_heapq',
   '/usr/local/Cellar/python/3.7.3/Frameworks/Python.framework/Versions/3.7/lib/python3.7/lib-dynload/_heapq.cpython-37m-darwin.so',
   'EXTENSION'),
  ('_opcode',
   '/usr/local/Cellar/python/3.7.3/Frameworks/Python.framework/Versions/3.7/lib/python3.7/lib-dynload/_opcode.cpython-37m-darwin.so',
   'EXTENSION'),
  ('readline',
   '/usr/local/Cellar/python/3.7.3/Frameworks/Python.framework/Versions/3.7/lib/python3.7/lib-dynload/readline.cpython-37m-darwin.so',
   'EXTENSION'),
  ('pyexpat',
   '/usr/local/Cellar/python/3.7.3/Frameworks/Python.framework/Versions/3.7/lib/python3.7/lib-dynload/pyexpat.cpython-37m-darwin.so',
   'EXTENSION'),
  ('_scproxy',
   '/usr/local/Cellar/python/3.7.3/Frameworks/Python.framework/Versions/3.7/lib/python3.7/lib-dynload/_scproxy.cpython-37m-darwin.so',
   'EXTENSION'),
  ('unicodedata',
   '/usr/local/Cellar/python/3.7.3/Frameworks/Python.framework/Versions/3.7/lib/python3.7/lib-dynload/unicodedata.cpython-37m-darwin.so',
   'EXTENSION'),
  ('termios',
   '/usr/local/Cellar/python/3.7.3/Frameworks/Python.framework/Versions/3.7/lib/python3.7/lib-dynload/termios.cpython-37m-darwin.so',
   'EXTENSION'),
  ('_sha1',
   '/usr/local/Cellar/python/3.7.3/Frameworks/Python.framework/Versions/3.7/lib/python3.7/lib-dynload/_sha1.cpython-37m-darwin.so',
   'EXTENSION'),
  ('_md5',
   '/usr/local/Cellar/python/3.7.3/Frameworks/Python.framework/Versions/3.7/lib/python3.7/lib-dynload/_md5.cpython-37m-darwin.so',
   'EXTENSION'),
  ('_sha256',
   '/usr/local/Cellar/python/3.7.3/Frameworks/Python.framework/Versions/3.7/lib/python3.7/lib-dynload/_sha256.cpython-37m-darwin.so',
   'EXTENSION'),
  ('_sha512',
   '/usr/local/Cellar/python/3.7.3/Frameworks/Python.framework/Versions/3.7/lib/python3.7/lib-dynload/_sha512.cpython-37m-darwin.so',
   'EXTENSION'),
  ('_blake2',
   '/usr/local/Cellar/python/3.7.3/Frameworks/Python.framework/Versions/3.7/lib/python3.7/lib-dynload/_blake2.cpython-37m-darwin.so',
   'EXTENSION'),
  ('_sha3',
   '/usr/local/Cellar/python/3.7.3/Frameworks/Python.framework/Versions/3.7/lib/python3.7/lib-dynload/_sha3.cpython-37m-darwin.so',
   'EXTENSION'),
  ('_hashlib',
   '/usr/local/Cellar/python/3.7.3/Frameworks/Python.framework/Versions/3.7/lib/python3.7/lib-dynload/_hashlib.cpython-37m-darwin.so',
   'EXTENSION'),
  ('_bisect',
   '/usr/local/Cellar/python/3.7.3/Frameworks/Python.framework/Versions/3.7/lib/python3.7/lib-dynload/_bisect.cpython-37m-darwin.so',
   'EXTENSION'),
  ('_random',
   '/usr/local/Cellar/python/3.7.3/Frameworks/Python.framework/Versions/3.7/lib/python3.7/lib-dynload/_random.cpython-37m-darwin.so',
   'EXTENSION'),
  ('select',
   '/usr/local/Cellar/python/3.7.3/Frameworks/Python.framework/Versions/3.7/lib/python3.7/lib-dynload/select.cpython-37m-darwin.so',
   'EXTENSION'),
  ('_bz2',
   '/usr/local/Cellar/python/3.7.3/Frameworks/Python.framework/Versions/3.7/lib/python3.7/lib-dynload/_bz2.cpython-37m-darwin.so',
   'EXTENSION'),
  ('_lzma',
   '/usr/local/Cellar/python/3.7.3/Frameworks/Python.framework/Versions/3.7/lib/python3.7/lib-dynload/_lzma.cpython-37m-darwin.so',
   'EXTENSION'),
  ('grp',
   '/usr/local/Cellar/python/3.7.3/Frameworks/Python.framework/Versions/3.7/lib/python3.7/lib-dynload/grp.cpython-37m-darwin.so',
   'EXTENSION'),
  ('binascii',
   '/usr/local/Cellar/python/3.7.3/Frameworks/Python.framework/Versions/3.7/lib/python3.7/lib-dynload/binascii.cpython-37m-darwin.so',
   'EXTENSION'),
  ('_socket',
   '/usr/local/Cellar/python/3.7.3/Frameworks/Python.framework/Versions/3.7/lib/python3.7/lib-dynload/_socket.cpython-37m-darwin.so',
   'EXTENSION'),
  ('math',
   '/usr/local/Cellar/python/3.7.3/Frameworks/Python.framework/Versions/3.7/lib/python3.7/lib-dynload/math.cpython-37m-darwin.so',
   'EXTENSION'),
  ('_ctypes',
   '/usr/local/Cellar/python/3.7.3/Frameworks/Python.framework/Versions/3.7/lib/python3.7/lib-dynload/_ctypes.cpython-37m-darwin.so',
   'EXTENSION'),
  ('libssl.1.0.0.dylib',
   '/usr/local/opt/openssl/lib/libssl.1.0.0.dylib',
   'BINARY'),
  ('libcrypto.1.0.0.dylib',
   '/usr/local/opt/openssl/lib/libcrypto.1.0.0.dylib',
   'BINARY'),
  ('libreadline.8.dylib',
   '/usr/local/opt/readline/lib/libreadline.8.dylib',
   'BINARY'),
  ('liblzma.5.dylib', '/usr/local/opt/xz/lib/liblzma.5.dylib', 'BINARY'),
  ('base_library.zip',
   '/Users/aleks/PycharmProjects/test/build/test/base_library.zip',
   'DATA')],
 False,
 False,
 False)
